{
    "answers": {
        "tak": 1,
        "nie": 0,
        "wszystko jedno": 0.5,
        "raczej tak": 0.75,
        "raczej nie": 0.25
    },
    "sets": {
        "wegetariańskie": {
            "question": "Jedzenie wegetariańskie?",
            "items": [
                {
                    "item": "zupa krem z dyni",
                    "membership": 1
                },
                { "item": "crepes", "membership": 1 },
                {
                    "item": "papryczki nadziewane serem",
                    "membership": 1
                },
                {
                    "item": "falafel",
                    "membership": 1
                },
                {
                    "item": "tort czekoladowy",
                    "membership": 1
                },
                {
                    "item": "lazania warzywna",
                    "membership": 1
                },
                {
                    "item": "kotlet sojowy z puree ziemniaczanym",
                    "membership": 1
                },
                {
                    "item": "sałatka owocowa",
                    "membership": 1
                },
                {
                    "item": "tabliczka czekolady",
                    "membership": 1
                },
                {
                    "item": "jabłko",
                    "membership": 1
                },
                {
                    "item": "orzeszki solone",
                    "membership": 1
                },
                {
                    "item": "słone paluszki",
                    "membership": 1
                }
            ]
        },
        "przyjęcie": {
            "question": "Czy jesteś na przyjęciu?",
            "items": [
                {
                    "item": "kurczak w cieście słodko-kwaśnym",
                    "membership": 0.5
                },
                {
                    "item": "wołowina Kobe",
                    "membership": 0.8
                },
                {
                    "item": "kotlet schabowy",
                    "membership": 0.2
                },
                {
                    "item": "spaghetti",
                    "membership": 0.5
                },
                {
                    "item": "kubełek kurczaka",
                    "membership": 0.1
                },
                {
                    "item": "zestaw z burgerem",
                    "membership": 0.1
                },
                {
                    "item": "żeberka",
                    "membership": 0.4
                },
                {
                    "item": "pierś z indyka",
                    "membership": 0.1
                },
                {
                    "item": "szaszłyk z boczkiem",
                    "membership": 0.5
                },
                {
                    "item": "zupa krem z dyni",
                    "membership": 1
                },
                { "item": "crepes", "membership": 1 },
                {
                    "item": "papryczki nadziewane serem",
                    "membership": 1
                },
                {
                    "item": "falafel",
                    "membership": 0.7
                },
                {
                    "item": "tort czekoladowy",
                    "membership": 1
                },
                {
                    "item": "lazania warzywna",
                    "membership": 1
                },
                {
                    "item": "kotlet sojowy z puree ziemniaczanym",
                    "membership": 0.3
                },
                {
                    "item": "sałatka owocowa",
                    "membership": 0.8
                },
                {
                    "item": "tabliczka czekolady",
                    "membership": 0
                },
                {
                    "item": "jabłko",
                    "membership": 0.1
                },
                {
                    "item": "orzeszki solone",
                    "membership": 1
                },
                {
                    "item": "słone paluszki",
                    "membership": 1
                }
            ]
        },
        "tanie": {
            "membershipFn":
                "(attribute, membership, allAttributes) => {if(attribute.price >= 50) return 0; else if(attribute.price >= 25) return 0.25; else if(attribute.price >= 10) return 0.75; else return 1; }",
            "question": "Czy ma być tanie?",
            "items": [
                {
                    "item": "kurczak w cieście słodko-kwaśnym",
                    "attribute": {
                        "price": 13
                    }
                },
                {
                    "item": "kotlet schabowy",
                    "membership": 1,
                    "attribute": {
                        "price": 10
                    }
                },
                {
                    "item": "spaghetti",
                    "membership": 1,
                    "attribute": {
                        "price": 8
                    }
                },
                {
                    "item": "kubełek kurczaka",
                    "membership": 0.1,
                    "attribute": {
                        "price": 30
                    }
                },
                {
                    "item": "zestaw z burgerem",
                    "membership": 0.1,
                    "attribute": {
                        "price": 20
                    }
                },
                {
                    "item": "żeberka",
                    "membership": 0.3,
                    "attribute": {
                        "price": 17
                    }
                },
                {
                    "item": "pierś z indyka",
                    "membership": 0.4,
                    "attribute": {
                        "price": 15
                    }
                },
                {
                    "item": "szaszłyk z boczkiem",
                    "membership": 0.2,
                    "attribute": {
                        "price": 18
                    }
                },
                {
                    "item": "zupa krem z dyni",
                    "membership": 0.8,
                    "attribute": {
                        "price": 10
                    }
                },
                {
                    "item": "crepes",
                    "membership": 0.6,
                    "attribute": {
                        "price": 13
                    }
                },
                {
                    "item": "papryczki nadziewane serem",
                    "membership": 0.1,
                    "attribute": {
                        "price": 18
                    }
                },
                {
                    "item": "falafel",
                    "membership": 0.7,
                    "attribute": {
                        "price": 12
                    }
                },
                {
                    "item": "lazania warzywna",
                    "membership": 0.8,
                    "attribute": {
                        "price": 11
                    }
                },
                {
                    "item": "kotlet sojowy z puree ziemniaczanym",
                    "membership": 1,
                    "attribute": {
                        "price": 7
                    }
                },
                {
                    "item": "sałatka owocowa",
                    "membership": 0.9,
                    "attribute": {
                        "price": 10
                    }
                },
                {
                    "item": "tabliczka czekolady",
                    "membership": 0.3,
                    "attribute": {
                        "price": 18
                    }
                },
                {
                    "item": "jabłko",
                    "membership": 1,
                    "attribute": {
                        "price": 3
                    }
                },
                {
                    "item": "słone paluszki",
                    "membership": 0.5,
                    "attribute": {
                        "price": 13
                    }
                }
            ]
        },
        "fastfood": {
            "question": "Fastfood?",
            "items": [
                {
                    "item": "kurczak w cieście słodko-kwaśnym",
                    "membership": 0.7
                },
                {
                    "item": "spaghetti",
                    "membership": 0.3
                },
                {
                    "item": "kubełek kurczaka",
                    "membership": 1
                },
                {
                    "item": "zestaw z burgerem",
                    "membership": 1
                },
                {
                    "item": "żeberka",
                    "membership": 0.5
                },
                {
                    "item": "falafel",
                    "membership": 0.3
                },

                {
                    "item": "orzeszki solone",
                    "membership": 0.3
                },
                {
                    "item": "słone paluszki",
                    "membership": 0.3
                }
            ]
        },
        "przekąska": {
            "question": "Przekąska?",
            "items": [
                {
                    "item": "szaszłyk z boczkiem",
                    "membership": 0.8
                },
                {
                    "item": "papryczki nadziewane serem",
                    "membership": 1
                },
                {
                    "item": "sałatka owocowa",
                    "membership": 0.8
                },
                {
                    "item": "tabliczka czekolady",
                    "membership": 1
                },
                {
                    "item": "jabłko",
                    "membership": 1
                },
                {
                    "item": "orzeszki solone",
                    "membership": 1
                },
                {
                    "item": "słone paluszki",
                    "membership": 1
                }
            ]
        },
        "domowe": {
            "question": "Domowe?",
            "items": [
                {
                    "item": "kurczak w cieście słodko-kwaśnym",
                    "membership": 0.5
                },
                {
                    "item": "kotlet schabowy",
                    "membership": 1
                },
                {
                    "item": "spaghetti",
                    "membership": 0.9
                },
                {
                    "item": "żeberka",
                    "membership": 0.4
                },
                {
                    "item": "pierś z indyka",
                    "membership": 1
                },
                {
                    "item": "szaszłyk z boczkiem",
                    "membership": 0.2
                },
                {
                    "item": "zupa krem z dyni",
                    "membership": 0.5
                },
                { "item": "crepes", "membership": 0.8 },
                {
                    "item": "lazania warzywna",
                    "membership": 0.4
                },
                {
                    "item": "kotlet sojowy z puree ziemniaczanym",
                    "membership": 1
                },
                {
                    "item": "sałatka owocowa",
                    "membership": 1
                },
                {
                    "item": "tabliczka czekolady",
                    "membership": 0.8
                },
                {
                    "item": "jabłko",
                    "membership": 0.8
                }
            ]
        },
        "z pieczywem": {
            "question": "Z pieczywem?",
            "items": [
                {
                    "item": "kotlet schabowy",
                    "membership": 0.8
                },
                {
                    "item": "zestaw z burgerem",
                    "membership": 1
                },
                {
                    "item": "żeberka",
                    "membership": 0.8
                },
                {
                    "item": "słone paluszki",
                    "membership": 1
                }
            ]
        },
        "lekkostrawne": {
            "question": "Lekkostrawne?",
            "items": [
                {
                    "item": "pierś z indyka",
                    "membership": 1
                },
                {
                    "item": "zupa krem z dyni",
                    "membership": 1
                },
                {
                    "item": "papryczki nadziewane serem",
                    "membership": 0.5
                },
                {
                    "item": "lazania warzywna",
                    "membership": 0.3
                },
                {
                    "item": "sałatka owocowa",
                    "membership": 1
                },
                {
                    "item": "tabliczka czekolady",
                    "membership": 0.4
                },
                {
                    "item": "jabłko",
                    "membership": 1
                }
            ]
        },
        "kolacja": {
            "question": "Na kolację?",
            "items": [
                {
                    "item": "kurczak w cieście słodko-kwaśnym",
                    "membership": 1
                },
                {
                    "item": "wołowina Kobe",
                    "membership": 1
                },

                {
                    "item": "spaghetti",
                    "membership": 1
                },
                {
                    "item": "kubełek kurczaka",
                    "membership": 0.4
                },
                {
                    "item": "zestaw z burgerem",
                    "membership": 0.4
                },
                { "item": "crepes", "membership": 0.8 },
                {
                    "item": "papryczki nadziewane serem",
                    "membership": 0.8
                },
                {
                    "item": "falafel",
                    "membership": 0.8
                },

                {
                    "item": "lazania warzywna",
                    "membership": 0.8
                },

                {
                    "item": "sałatka owocowa",
                    "membership": 1
                },
                {
                    "item": "tabliczka czekolady",
                    "membership": 0.7
                },
                {
                    "item": "jabłko",
                    "membership": 1
                }
            ]
        },
        "na ciepło": {
            "question": "Na ciepło?",
            "items": [
                {
                    "item": "kurczak w cieście słodko-kwaśnym",
                    "membership": 1
                },
                {
                    "item": "wołowina Kobe",
                    "membership": 1
                },
                {
                    "item": "kotlet schabowy",
                    "membership": 1
                },
                {
                    "item": "spaghetti",
                    "membership": 1
                },
                {
                    "item": "kubełek kurczaka",
                    "membership": 1
                },
                {
                    "item": "zestaw z burgerem",
                    "membership": 1
                },
                {
                    "item": "żeberka",
                    "membership": 1
                },
                {
                    "item": "pierś z indyka",
                    "membership": 1
                },
                {
                    "item": "szaszłyk z boczkiem",
                    "membership": 1
                },
                {
                    "item": "zupa krem z dyni",
                    "membership": 1
                },
                { "item": "crepes", "membership": 1 },

                {
                    "item": "falafel",
                    "membership": 1
                },

                {
                    "item": "lazania warzywna",
                    "membership": 1
                },
                {
                    "item": "kotlet sojowy z puree ziemniaczanym",
                    "membership": 1
                }
            ]
        },
        "na szybko": {
            "membershipFn":
                "(attribute, membership, allAttributes) => 1 - (attribute.preparationTime / Math.max(...allAttributes.map(a => a.preparationTime)))",
            "question": "Na szybko?",
            "items": [
                {
                    "item": "kurczak w cieście słodko-kwaśnym",
                    "membership": 0.5,
                    "attribute": {
                        "preparationTime": 30
                    }
                },
                {
                    "item": "wołowina Kobe",
                    "attribute": {
                        "preparationTime": 6
                    }
                },
                {
                    "item": "spaghetti",
                    "membership": 0.5,
                    "attribute": {
                        "preparationTime": 25
                    }
                },
                {
                    "item": "kubełek kurczaka",
                    "membership": 1,
                    "attribute": {
                        "preparationTime": 5
                    }
                },
                {
                    "item": "zestaw z burgerem",
                    "membership": 1,
                    "attribute": {
                        "preparationTime": 10
                    }
                },
                {
                    "item": "pierś z indyka",
                    "membership": 0.5,
                    "attribute": {
                        "preparationTime": 70
                    }
                },
                {
                    "item": "crepes",
                    "membership": 1,
                    "attribute": {
                        "preparationTime": 45
                    }
                },
                {
                    "item": "papryczki nadziewane serem",
                    "membership": 1,
                    "attribute": {
                        "preparationTime": 10
                    }
                },
                {
                    "item": "falafel",
                    "membership": 0.7,
                    "attribute": {
                        "preparationTime": 15
                    }
                },
                {
                    "item": "kotlet sojowy z puree ziemniaczanym",
                    "attribute": {
                        "preparationTime": 30
                    }
                },
                {
                    "item": "lazania warzywna",
                    "attribute": {
                        "preparationTime": 50
                    }
                },
                {
                    "item": "szaszłyk z boczkiem",
                    "attribute": {
                        "preparationTime": 30
                    }
                },
                {
                    "item": "zupa krem z dyni",
                    "attribute": {
                        "preparationTime": 40
                    }
                },
                {
                    "item": "tort czekoladowy",
                    "membership": 0.8,
                    "attribute": {
                        "preparationTime": 60
                    }
                },
                {
                    "item": "sałatka owocowa",
                    "membership": 1,
                    "attribute": {
                        "preparationTime": 5
                    }
                },
                {
                    "item": "tabliczka czekolady",
                    "membership": 1,
                    "attribute": {
                        "preparationTime": 0
                    }
                },
                {
                    "item": "jabłko",
                    "membership": 1,
                    "attribute": {
                        "preparationTime": 0
                    }
                },
                {
                    "item": "orzeszki solone",
                    "membership": 1,
                    "attribute": {
                        "preparationTime": 0
                    }
                },
                {
                    "item": "słone paluszki",
                    "membership": 1,
                    "attribute": {
                        "preparationTime": 0
                    }
                }
            ]
        },
        "słone": {
            "question": "Coś słonego?",
            "items": [
                {
                    "item": "kurczak w cieście słodko-kwaśnym",
                    "membership": 1
                },
                {
                    "item": "wołowina Kobe",
                    "membership": 1
                },
                {
                    "item": "kotlet schabowy",
                    "membership": 1
                },
                {
                    "item": "spaghetti",
                    "membership": 1
                },
                {
                    "item": "kubełek kurczaka",
                    "membership": 1
                },
                {
                    "item": "zestaw z burgerem",
                    "membership": 1
                },
                {
                    "item": "żeberka",
                    "membership": 1
                },
                {
                    "item": "pierś z indyka",
                    "membership": 0.8
                },
                {
                    "item": "szaszłyk z boczkiem",
                    "membership": 1
                },
                {
                    "item": "zupa krem z dyni",
                    "membership": 1
                },
                {
                    "item": "papryczki nadziewane serem",
                    "membership": 1
                },
                {
                    "item": "falafel",
                    "membership": 1
                },

                {
                    "item": "lazania warzywna",
                    "membership": 1
                },
                {
                    "item": "kotlet sojowy z puree ziemniaczanym",
                    "membership": 1
                },
                {
                    "item": "orzeszki solone",
                    "membership": 1
                },
                {
                    "item": "słone paluszki",
                    "membership": 1
                }
            ]
        },
        "ekskluzywne": {
            "question": "Ekskluzywne?",
            "items": [
                {
                    "item": "kurczak w cieście słodko-kwaśnym",
                    "membership": 0.3
                },
                {
                    "item": "wołowina Kobe",
                    "membership": 1
                },
                {
                    "item": "kotlet schabowy",
                    "membership": 0.1
                },
                {
                    "item": "spaghetti",
                    "membership": 0.7
                },
                {
                    "item": "zestaw z burgerem",
                    "membership": 0.6
                },
                {
                    "item": "żeberka",
                    "membership": 0.6
                },
                {
                    "item": "pierś z indyka",
                    "membership": 0.4
                },
                {
                    "item": "szaszłyk z boczkiem",
                    "membership": 0.3
                },
                {
                    "item": "zupa krem z dyni",
                    "membership": 1
                },
                { "item": "crepes", "membership": 1 },
                {
                    "item": "papryczki nadziewane serem",
                    "membership": 1
                },
                {
                    "item": "falafel",
                    "membership": 0.8
                },
                {
                    "item": "tort czekoladowy",
                    "membership": 1
                },
                {
                    "item": "lazania warzywna",
                    "membership": 0.9
                },
                {
                    "item": "kotlet sojowy z puree ziemniaczanym",
                    "membership": 0.6
                },
                {
                    "item": "sałatka owocowa",
                    "membership": 0.4
                }
            ]
        },
        "z makaronem": {
            "question": "Z makaronem?",
            "items": [
                {
                    "item": "spaghetti",
                    "membership": 1
                }
            ]
        },
        "słodkie": {
            "question": "Coś słodkiego?",
            "items": [
                {
                    "item": "kurczak w cieście słodko-kwaśnym",
                    "membership": 0.4
                },

                {
                    "item": "pierś z indyka",
                    "membership": 0.2
                },

                { "item": "crepes", "membership": 1 },

                {
                    "item": "tort czekoladowy",
                    "membership": 1
                },

                {
                    "item": "sałatka owocowa",
                    "membership": 1
                },
                {
                    "item": "tabliczka czekolady",
                    "membership": 1
                },
                {
                    "item": "jabłko",
                    "membership": 1
                }
            ]
        },
        "restauracyjne": {
            "question": "Coś w restauracji?",
            "items": [
                {
                    "item": "kurczak w cieście słodko-kwaśnym",
                    "membership": 1
                },
                {
                    "item": "wołowina Kobe",
                    "membership": 1
                },
                {
                    "item": "kotlet schabowy",
                    "membership": 0.7
                },
                {
                    "item": "spaghetti",
                    "membership": 1
                },
                {
                    "item": "kubełek kurczaka",
                    "membership": 1
                },
                {
                    "item": "zestaw z burgerem",
                    "membership": 1
                },
                {
                    "item": "żeberka",
                    "membership": 1
                },
                {
                    "item": "pierś z indyka",
                    "membership": 1
                },
                {
                    "item": "szaszłyk z boczkiem",
                    "membership": 1
                },
                {
                    "item": "zupa krem z dyni",
                    "membership": 1
                },
                { "item": "crepes", "membership": 1 },
                {
                    "item": "papryczki nadziewane serem",
                    "membership": 1
                },
                {
                    "item": "falafel",
                    "membership": 1
                },
                {
                    "item": "tort czekoladowy",
                    "membership": 1
                },
                {
                    "item": "lazania warzywna",
                    "membership": 1
                },
                {
                    "item": "sałatka owocowa",
                    "membership": 0.7
                }
            ]
        },
        "owoc": {
            "question": "Jakiś owoc?",
            "items": [
                {
                    "item": "sałatka owocowa",
                    "membership": 1
                },

                {
                    "item": "jabłko",
                    "membership": 1
                }
            ]
        },
        "uczulenie na orzechy": {
            "question": "Czy masz uczulenie na orzechy?",
            "items": [
                {
                    "item": "kurczak w cieście słodko-kwaśnym",
                    "membership": 0.8
                },
                {
                    "item": "wołowina Kobe",
                    "membership": 1
                },
                {
                    "item": "kotlet schabowy",
                    "membership": 1
                },
                {
                    "item": "spaghetti",
                    "membership": 1
                },
                {
                    "item": "kubełek kurczaka",
                    "membership": 1
                },
                {
                    "item": "zestaw z burgerem",
                    "membership": 1
                },
                {
                    "item": "żeberka",
                    "membership": 1
                },
                {
                    "item": "pierś z indyka",
                    "membership": 1
                },
                {
                    "item": "szaszłyk z boczkiem",
                    "membership": 1
                },
                {
                    "item": "zupa krem z dyni",
                    "membership": 1
                },
                { "item": "crepes", "membership": 1 },
                {
                    "item": "papryczki nadziewane serem",
                    "membership": 1
                },
                {
                    "item": "falafel",
                    "membership": 1
                },
                {
                    "item": "tort czekoladowy",
                    "membership": 1
                },
                {
                    "item": "lazania warzywna",
                    "membership": 1
                },
                {
                    "item": "kotlet sojowy z puree ziemniaczanym",
                    "membership": 1
                },
                {
                    "item": "sałatka owocowa",
                    "membership": 1
                },
                {
                    "item": "tabliczka czekolady",
                    "membership": 1
                },
                {
                    "item": "jabłko",
                    "membership": 1
                },
                {
                    "item": "słone paluszki",
                    "membership": 1
                }
            ]
        }
    },
    "root": {
        "question": "wegetariańskie",
        "answers": {
            "tak": {
                "question": "tanie",
                "answers": {
                    "tak": {
                        "question": "przekąska",
                        "answers": {
                            "tak": {
                                "question": "słone",
                                "answers": {
                                    "tak": {
                                        "question": "uczulenie na orzechy",
                                        "answers": {
                                            "tak": "słone paluszki",
                                            "nie": "orzeszki solone"
                                        }
                                    },
                                    "nie": {
                                        "question": "owoc",
                                        "answers": {
                                            "tak": "jabłko",
                                            "nie": "tabliczka czekolady"
                                        }
                                    }
                                }
                            },
                            "nie": {
                                "question": "na szybko",
                                "answers": {
                                    "tak": "sałatka owocowa",
                                    "nie": "kotlet sojowy z puree ziemniaczanym"
                                }
                            }
                        }
                    },
                    "nie": {
                        "question": "przyjęcie",
                        "answers": {
                            "tak": {
                                "question": "na ciepło",
                                "answers": {
                                    "tak": "lazania warzywna",
                                    "nie": "tort czekoladowy"
                                }
                            },
                            "nie": {
                                "question": "kolacja",
                                "answers": {
                                    "tak": {
                                        "question": "restauracyjne",
                                        "answers": {
                                            "tak": "falafel",
                                            "nie": "papryczki nadziewane serem"
                                        }
                                    },
                                    "nie": {
                                        "question": "słodkie",
                                        "answers": {
                                            "tak": "crepes",
                                            "nie": "zupa krem z dyni"
                                        }
                                    }
                                }
                            }
                        }
                    }
                }
            },
            "nie": {
                "question": "przyjęcie",
                "answers": {
                    "tak": {
                        "question": "przekąska",
                        "answers": {
                            "tak": "szaszłyk z boczkiem",
                            "nie": {
                                "question": "lekkostrawne",
                                "answers": {
                                    "tak": "pierś z indyka",
                                    "nie": "żeberka"
                                }
                            }
                        }
                    },
                    "nie": {
                        "question": "fastfood",
                        "answers": {
                            "tak": {
                                "question": "z pieczywem",
                                "answers": {
                                    "tak": "zestaw z burgerem",
                                    "nie": "kubełek kurczaka"
                                }
                            },
                            "nie": {
                                "question": "domowe",
                                "answers": {
                                    "tak": {
                                        "question": "z makaronem",
                                        "answers": {
                                            "tak": "spaghetti",
                                            "nie": "kotlet schabowy"
                                        }
                                    },
                                    "nie": {
                                        "question": "ekskluzywne",
                                        "answers": {
                                            "tak": "wołowina Kobe",
                                            "nie":
                                                "kurczak w cieście słodko-kwaśnym"
                                        }
                                    }
                                }
                            }
                        }
                    }
                }
            }
        }
    }
}
